%!PS-Adobe-2.0
%%Creator: TECPLOT
%%Pages:1
%%BoundingBox: 71 17 721 595
%%DocumentFonts: Helvetica Helvetica-Bold Symbol Times-Roman Times-Bold Times-Italic Times-BoldItalic Courier Courier-Bold
%%EndComments
/tecplotdict 120 dict def
tecplotdict begin
/ed  {exch def} def
/ftl {findfont exch scalefont setfont} def
/ftr {/ISOLatin1-Times-Roman ftl} def
/ftb {/ISOLatin1-Times-Bold ftl} def
/fti {/ISOLatin1-Times-Italic ftl} def
/ftib {/ISOLatin1-Times-BoldItalic ftl} def
/fcr {/ISOLatin1-Courier ftl} def
/fcb {/ISOLatin1-Courier-Bold ftl} def
/fhn {/ISOLatin1-Helvetica ftl} def
/fhb {/ISOLatin1-Helvetica-Bold ftl} def
/fsy {/Symbol ftl} def
/gs /gsave load def
/gr /grestore load def
/np /newpath load def
/cp /closepath load def
/g /setgray load def
/lc {setlinecap} def
/lj /setlinejoin load def
/x /setrgbcolor load def
/sd /setdash load def
/sw {setlinewidth} def
/cpt /currentpoint load def
/m {moveto} def
/rm /rmoveto load def
/l /lineto load def
/r /rlineto load def
/sf /setflat load def
/s /stroke load def
/q {cpt s m} def
/ro /rotate load def
/sh /show load def
/clp {cp gr gs np m l l l cp clip np cp} def
/dorect
{
/height ed
/width  ed
m
0 height r
width 0 r
0 height neg r
cp
} def
/er {cp np dorect g fill 0 g cp} def
/erc {cp np dorect x fill 0 g cp} def
/br {cp np dorect g cp s} def
/brc {cp np dorect x cp s} def
/ii 0 def
/n 0 def
/CurA 0 def
/Ry 0 def
/Rx 0 def
/CA 0 def
/SA 0 def
/SJ 0 def
/SI 0 def
/bi 0 def
/i 0 def
/ib 0 def
/ig 0 def
/ir 0 def
/ishade 0 def
/bshade 0 def
/dcs
{
m
dup dup dup
-2 div dup
rm
0 r
0 exch r
neg 0 r
cp
} bind def
/pg
{
/size ed
/Ny ed
/Nx ed
/Y2 ed
/X2 ed
/Y1 ed
/X1 ed
Ny 1 gt
{/Dy Y2 Y1 sub Ny 1 sub div def}
{/Dy 0.0 def}
ifelse
Nx 1 gt
{/Dx X2 X1 sub Nx 1 sub div def}
{/Dx 0.0 def}
ifelse
Y1 Dy Y2 Dy 2 div add
{
X1 Dx X2 Dx 2 div add
{
1 index
size 3 1 roll
dcs fill
Dx 0.0 eq
{exit}
if
} for
pop
Dy 0.0 eq
{exit}
if
} for
} bind def
/z
{
/ii ed
rea ii get
gra ii get
bla ii get
} def
/lrgb
{
/blue ed
/green ed
/red ed
bla numColors blue put
gra numColors green put
rea numColors red put
numColors 1 add /numColors ed
} def
/trace
{
cp np
m
1 1 n 
{
pop
l
} for
cp
} def
/pf
{
/ishade ed
/n ed 
s
trace
ishade g fill
} def
/pb
{
/bshade ed
/n ed 
m
1 1 n 
{
pop
l
} for
bshade g s
} def
/pfb
{
/bshade ed
/ishade ed
/n ed 
s 
n 2 mul 2 add copy
trace
ishade g fill
trace
bshade g s
} def
/pfi
{
/i ed
/n ed 
s 
trace
i z x fill
} def
/pbi
{
/i ed
/n ed 
m
1 1 n 
{
pop
l
} for
i z x s
} def
/pfbi
{
/ii ed
/bi ed
/n ed 
s 
n 2 mul 2 add copy
trace
ii z x fill
trace
bi z x s
} def
/pfr
{
/ib ed
/ig ed
/ir ed
/n ed 
s 
trace
ir ig ib x fill
} def
/pbr
{
/ib ed
/ig ed
/ir ed
/n ed 
m
1 1 n 
{
pop
l
} for
ir ig ib x s
} def
/pfbr
{
/ib ed
/ig ed
/ir ed
/ibb ed
/ibg ed
/ibr ed
/n ed
s
n 2 mul 2 add copy
trace
ir ig ib x fill
trace
ibr ibg ibb x s
} def
/e
{
/Ry ed
/Rx ed
/CA ed
/SA ed
/SJ ed
/SI ed
/N 0 def
SA
CA
SA 360 add
{
/CurA ed
/CX CurA cos Rx mul def
/CY CurA sin Ry mul def
SI CX add 
SJ CY add 
/N N 1 add def
}
for
SI SA cos Rx mul add
SJ SA sin Ry mul add
N
} def
%%EndProlog
%%Page:? 1
/getisofont
{
findfont
dup length dict begin
{
1 index /FID ne {def}{pop pop} ifelse
} forall
/Encoding ISOLatin1Encoding def
currentdict
end
} def
/Helvetica             getisofont /ISOLatin1-Helvetica             exch definefont pop
/Helvetica-Bold        getisofont /ISOLatin1-Helvetica-Bold        exch definefont pop
/Helvetica-Oblique     getisofont /ISOLatin1-Helvetica-Oblique     exch definefont pop
/Helvetica-BoldOblique getisofont /ISOLatin1-Helvetica-BoldOblique exch definefont pop
/Times-Roman           getisofont /ISOLatin1-Times-Roman           exch definefont pop
/Times-Bold            getisofont /ISOLatin1-Times-Bold            exch definefont pop
/Times-BoldItalic      getisofont /ISOLatin1-Times-BoldItalic      exch definefont pop
/Times-Italic          getisofont /ISOLatin1-Times-Italic          exch definefont pop
/Courier               getisofont /ISOLatin1-Courier               exch definefont pop
/Courier-Bold          getisofont /ISOLatin1-Courier-Bold          exch definefont pop
/Courier-Oblique       getisofont /ISOLatin1-Courier-Oblique       exch definefont pop
/Courier-BoldOblique   getisofont /ISOLatin1-Courier-BoldOblique   exch definefont pop
0 /numColors ed
/rea 468 array def
/gra 468 array def
/bla 468 array def
0 0 0 lrgb
0.824 0 0 lrgb
0 0.824 0 lrgb
0.176 0.176 1 lrgb
0 1 1 lrgb
1 1 0.176 lrgb
1 0 1 lrgb
1 1 1 lrgb
0.333 0.333 0.333 lrgb
0.831 0.831 0.831 lrgb
1 0.498 0 lrgb
0.498 1 0 lrgb
0 1 0.498 lrgb
0 0.498 1 lrgb
0.498 0 1 lrgb
1 0 0.498 lrgb
0.333 0 0 lrgb
1 0.667 0.667 lrgb
1 0.667 0.333 lrgb
0.333 1 0.333 lrgb
0.333 1 0.667 lrgb
0.333 0.333 1 lrgb
0.667 0.333 1 lrgb
1 0.333 0.333 lrgb
0.333 0.333 0 lrgb
1 1 0.667 lrgb
1 1 0.333 lrgb
0 1 0.333 lrgb
0.333 1 1 lrgb
0.333 0 1 lrgb
1 0.333 1 lrgb
1 0.333 0 lrgb
0 0.333 0 lrgb
0.667 1 0.667 lrgb
0.667 1 0.333 lrgb
0 0.667 0.333 lrgb
0.333 0.667 1 lrgb
0.333 0 0.667 lrgb
1 0.333 0.667 lrgb
0.667 0.333 0 lrgb
0 0.333 0.333 lrgb
0.667 1 1 lrgb
0.667 1 0 lrgb
0 0.667 0 lrgb
0 0.667 1 lrgb
0 0 0.667 lrgb
1 0 0.667 lrgb
0.667 0 0 lrgb
0 0 0.333 lrgb
0.667 0.667 1 lrgb
0.667 0.667 0 lrgb
0.333 0.667 0 lrgb
0 0.667 0.667 lrgb
0 0.333 0.667 lrgb
0.667 0 0.667 lrgb
0.667 0 0.333 lrgb
0.333 0 0.333 lrgb
1 0.667 1 lrgb
0.667 0.667 0.333 lrgb
0.333 0.667 0.333 lrgb
0.333 0.667 0.667 lrgb
0.333 0.333 0.667 lrgb
0.667 0.333 0.667 lrgb
0.667 0.333 0.333 lrgb
0.588 0.588 0.588 lrgb
0.412 0.412 0.412 lrgb
0 0 0 lrgb
0 0 1 lrgb
0 0.0118 1 lrgb
0 0.0196 1 lrgb
0 0.0314 1 lrgb
0 0.0392 1 lrgb
0 0.051 1 lrgb
0 0.0588 1 lrgb
0 0.0706 1 lrgb
0 0.0784 1 lrgb
0 0.0902 1 lrgb
0 0.098 1 lrgb
0 0.11 1 lrgb
0 0.122 1 lrgb
0 0.129 1 lrgb
0 0.141 1 lrgb
0 0.149 1 lrgb
0 0.161 1 lrgb
0 0.169 1 lrgb
0 0.18 1 lrgb
0 0.188 1 lrgb
0 0.2 1 lrgb
0 0.212 1 lrgb
0 0.22 1 lrgb
0 0.231 1 lrgb
0 0.239 1 lrgb
0 0.251 1 lrgb
0 0.259 1 lrgb
0 0.271 1 lrgb
0 0.278 1 lrgb
0 0.29 1 lrgb
0 0.298 1 lrgb
0 0.31 1 lrgb
0 0.322 1 lrgb
0 0.329 1 lrgb
0 0.341 1 lrgb
0 0.349 1 lrgb
0 0.361 1 lrgb
0 0.369 1 lrgb
0 0.38 1 lrgb
0 0.388 1 lrgb
0 0.4 1 lrgb
0 0.412 1 lrgb
0 0.42 1 lrgb
0 0.431 1 lrgb
0 0.439 1 lrgb
0 0.451 1 lrgb
0 0.459 1 lrgb
0 0.471 1 lrgb
0 0.478 1 lrgb
0 0.49 1 lrgb
0 0.498 1 lrgb
0 0.51 1 lrgb
0 0.522 1 lrgb
0 0.529 1 lrgb
0 0.541 1 lrgb
0 0.549 1 lrgb
0 0.561 1 lrgb
0 0.569 1 lrgb
0 0.58 1 lrgb
0 0.588 1 lrgb
0 0.6 1 lrgb
0 0.612 1 lrgb
0 0.62 1 lrgb
0 0.631 1 lrgb
0 0.639 1 lrgb
0 0.651 1 lrgb
0 0.659 1 lrgb
0 0.671 1 lrgb
0 0.678 1 lrgb
0 0.69 1 lrgb
0 0.698 1 lrgb
0 0.71 1 lrgb
0 0.722 1 lrgb
0 0.729 1 lrgb
0 0.741 1 lrgb
0 0.749 1 lrgb
0 0.761 1 lrgb
0 0.769 1 lrgb
0 0.78 1 lrgb
0 0.788 1 lrgb
0 0.8 1 lrgb
0 0.812 1 lrgb
0 0.82 1 lrgb
0 0.831 1 lrgb
0 0.839 1 lrgb
0 0.851 1 lrgb
0 0.859 1 lrgb
0 0.871 1 lrgb
0 0.878 1 lrgb
0 0.89 1 lrgb
0 0.898 1 lrgb
0 0.91 1 lrgb
0 0.922 1 lrgb
0 0.929 1 lrgb
0 0.941 1 lrgb
0 0.949 1 lrgb
0 0.961 1 lrgb
0 0.969 1 lrgb
0 0.98 1 lrgb
0 0.988 1 lrgb
0 1 1 lrgb
0 1 0.988 lrgb
0 1 0.98 lrgb
0 1 0.969 lrgb
0 1 0.961 lrgb
0 1 0.949 lrgb
0 1 0.941 lrgb
0 1 0.929 lrgb
0 1 0.922 lrgb
0 1 0.91 lrgb
0 1 0.898 lrgb
0 1 0.89 lrgb
0 1 0.878 lrgb
0 1 0.871 lrgb
0 1 0.859 lrgb
0 1 0.851 lrgb
0 1 0.839 lrgb
0 1 0.831 lrgb
0 1 0.82 lrgb
0 1 0.812 lrgb
0 1 0.8 lrgb
0 1 0.788 lrgb
0 1 0.78 lrgb
0 1 0.769 lrgb
0 1 0.761 lrgb
0 1 0.749 lrgb
0 1 0.741 lrgb
0 1 0.729 lrgb
0 1 0.722 lrgb
0 1 0.71 lrgb
0 1 0.698 lrgb
0 1 0.69 lrgb
0 1 0.678 lrgb
0 1 0.671 lrgb
0 1 0.659 lrgb
0 1 0.651 lrgb
0 1 0.639 lrgb
0 1 0.631 lrgb
0 1 0.62 lrgb
0 1 0.612 lrgb
0 1 0.6 lrgb
0 1 0.588 lrgb
0 1 0.58 lrgb
0 1 0.569 lrgb
0 1 0.561 lrgb
0 1 0.549 lrgb
0 1 0.541 lrgb
0 1 0.529 lrgb
0 1 0.522 lrgb
0 1 0.51 lrgb
0 1 0.498 lrgb
0 1 0.49 lrgb
0 1 0.478 lrgb
0 1 0.471 lrgb
0 1 0.459 lrgb
0 1 0.451 lrgb
0 1 0.439 lrgb
0 1 0.431 lrgb
0 1 0.42 lrgb
0 1 0.412 lrgb
0 1 0.4 lrgb
0 1 0.388 lrgb
0 1 0.38 lrgb
0 1 0.369 lrgb
0 1 0.361 lrgb
0 1 0.349 lrgb
0 1 0.341 lrgb
0 1 0.329 lrgb
0 1 0.322 lrgb
0 1 0.31 lrgb
0 1 0.298 lrgb
0 1 0.29 lrgb
0 1 0.278 lrgb
0 1 0.271 lrgb
0 1 0.259 lrgb
0 1 0.251 lrgb
0 1 0.239 lrgb
0 1 0.231 lrgb
0 1 0.22 lrgb
0 1 0.212 lrgb
0 1 0.2 lrgb
0 1 0.188 lrgb
0 1 0.18 lrgb
0 1 0.169 lrgb
0 1 0.161 lrgb
0 1 0.149 lrgb
0 1 0.141 lrgb
0 1 0.129 lrgb
0 1 0.122 lrgb
0 1 0.11 lrgb
0 1 0.098 lrgb
0 1 0.0902 lrgb
0 1 0.0784 lrgb
0 1 0.0706 lrgb
0 1 0.0588 lrgb
0 1 0.051 lrgb
0 1 0.0392 lrgb
0 1 0.0314 lrgb
0 1 0.0196 lrgb
0 1 0.0118 lrgb
0 1 0 lrgb
0.0118 1 0 lrgb
0.0196 1 0 lrgb
0.0314 1 0 lrgb
0.0392 1 0 lrgb
0.051 1 0 lrgb
0.0588 1 0 lrgb
0.0706 1 0 lrgb
0.0784 1 0 lrgb
0.0902 1 0 lrgb
0.098 1 0 lrgb
0.11 1 0 lrgb
0.122 1 0 lrgb
0.129 1 0 lrgb
0.141 1 0 lrgb
0.149 1 0 lrgb
0.161 1 0 lrgb
0.169 1 0 lrgb
0.18 1 0 lrgb
0.188 1 0 lrgb
0.2 1 0 lrgb
0.212 1 0 lrgb
0.22 1 0 lrgb
0.231 1 0 lrgb
0.239 1 0 lrgb
0.251 1 0 lrgb
0.259 1 0 lrgb
0.271 1 0 lrgb
0.278 1 0 lrgb
0.29 1 0 lrgb
0.298 1 0 lrgb
0.31 1 0 lrgb
0.322 1 0 lrgb
0.329 1 0 lrgb
0.341 1 0 lrgb
0.349 1 0 lrgb
0.361 1 0 lrgb
0.369 1 0 lrgb
0.38 1 0 lrgb
0.388 1 0 lrgb
0.4 1 0 lrgb
0.412 1 0 lrgb
0.42 1 0 lrgb
0.431 1 0 lrgb
0.439 1 0 lrgb
0.451 1 0 lrgb
0.459 1 0 lrgb
0.471 1 0 lrgb
0.478 1 0 lrgb
0.49 1 0 lrgb
0.498 1 0 lrgb
0.51 1 0 lrgb
0.522 1 0 lrgb
0.529 1 0 lrgb
0.541 1 0 lrgb
0.549 1 0 lrgb
0.561 1 0 lrgb
0.569 1 0 lrgb
0.58 1 0 lrgb
0.588 1 0 lrgb
0.6 1 0 lrgb
0.612 1 0 lrgb
0.62 1 0 lrgb
0.631 1 0 lrgb
0.639 1 0 lrgb
0.651 1 0 lrgb
0.659 1 0 lrgb
0.671 1 0 lrgb
0.678 1 0 lrgb
0.69 1 0 lrgb
0.698 1 0 lrgb
0.71 1 0 lrgb
0.722 1 0 lrgb
0.729 1 0 lrgb
0.741 1 0 lrgb
0.749 1 0 lrgb
0.761 1 0 lrgb
0.769 1 0 lrgb
0.78 1 0 lrgb
0.788 1 0 lrgb
0.8 1 0 lrgb
0.812 1 0 lrgb
0.82 1 0 lrgb
0.831 1 0 lrgb
0.839 1 0 lrgb
0.851 1 0 lrgb
0.859 1 0 lrgb
0.871 1 0 lrgb
0.878 1 0 lrgb
0.89 1 0 lrgb
0.898 1 0 lrgb
0.91 1 0 lrgb
0.922 1 0 lrgb
0.929 1 0 lrgb
0.941 1 0 lrgb
0.949 1 0 lrgb
0.961 1 0 lrgb
0.969 1 0 lrgb
0.98 1 0 lrgb
0.988 1 0 lrgb
1 1 0 lrgb
1 0.988 0 lrgb
1 0.98 0 lrgb
1 0.969 0 lrgb
1 0.961 0 lrgb
1 0.949 0 lrgb
1 0.941 0 lrgb
1 0.929 0 lrgb
1 0.922 0 lrgb
1 0.91 0 lrgb
1 0.898 0 lrgb
1 0.89 0 lrgb
1 0.878 0 lrgb
1 0.871 0 lrgb
1 0.859 0 lrgb
1 0.851 0 lrgb
1 0.839 0 lrgb
1 0.831 0 lrgb
1 0.82 0 lrgb
1 0.812 0 lrgb
1 0.8 0 lrgb
1 0.788 0 lrgb
1 0.78 0 lrgb
1 0.769 0 lrgb
1 0.761 0 lrgb
1 0.749 0 lrgb
1 0.741 0 lrgb
1 0.729 0 lrgb
1 0.722 0 lrgb
1 0.71 0 lrgb
1 0.698 0 lrgb
1 0.69 0 lrgb
1 0.678 0 lrgb
1 0.671 0 lrgb
1 0.659 0 lrgb
1 0.651 0 lrgb
1 0.639 0 lrgb
1 0.631 0 lrgb
1 0.62 0 lrgb
1 0.612 0 lrgb
1 0.6 0 lrgb
1 0.588 0 lrgb
1 0.58 0 lrgb
1 0.569 0 lrgb
1 0.561 0 lrgb
1 0.549 0 lrgb
1 0.541 0 lrgb
1 0.529 0 lrgb
1 0.522 0 lrgb
1 0.51 0 lrgb
1 0.498 0 lrgb
1 0.49 0 lrgb
1 0.478 0 lrgb
1 0.471 0 lrgb
1 0.459 0 lrgb
1 0.451 0 lrgb
1 0.439 0 lrgb
1 0.431 0 lrgb
1 0.42 0 lrgb
1 0.412 0 lrgb
1 0.4 0 lrgb
1 0.388 0 lrgb
1 0.38 0 lrgb
1 0.369 0 lrgb
1 0.361 0 lrgb
1 0.349 0 lrgb
1 0.341 0 lrgb
1 0.329 0 lrgb
1 0.322 0 lrgb
1 0.31 0 lrgb
1 0.298 0 lrgb
1 0.29 0 lrgb
1 0.278 0 lrgb
1 0.271 0 lrgb
1 0.259 0 lrgb
1 0.251 0 lrgb
1 0.239 0 lrgb
1 0.231 0 lrgb
1 0.22 0 lrgb
1 0.212 0 lrgb
1 0.2 0 lrgb
1 0.188 0 lrgb
1 0.18 0 lrgb
1 0.169 0 lrgb
1 0.161 0 lrgb
1 0.149 0 lrgb
1 0.141 0 lrgb
1 0.129 0 lrgb
1 0.122 0 lrgb
1 0.11 0 lrgb
1 0.098 0 lrgb
1 0.0902 0 lrgb
1 0.0784 0 lrgb
1 0.0706 0 lrgb
1 0.0588 0 lrgb
1 0.051 0 lrgb
1 0.0392 0 lrgb
1 0.0314 0 lrgb
1 0.0196 0 lrgb
1 0.0118 0 lrgb
1 0 0 lrgb
5 setmiterlimit
0.025 0.025 scale np
gs
5471 2562 5471 23070 28023 23070 28023 2562 clp
2879 719 2879 23761 28801 23761 28801 719 clp
12970 14278 45 90 389 389 e
0 pfi
13524 12761 45 90 389 389 e
0 pfi
14073 10599 45 90 389 389 e
0 pfi
14610 10145 45 90 389 389 e
0 pfi
15194 9857 45 90 389 389 e
0 pfi
15731 8636 45 90 389 389 e
0 pfi
16291 8196 45 90 389 389 e
0 pfi
16744 7635 45 90 389 389 e
0 pfi
17328 7598 45 90 389 389 e
0 pfi
17871 7424 45 90 389 389 e
0 pfi
18413 7720 45 90 389 389 e
0 pfi
18962 7782 45 90 389 389 e
0 pfi
19505 7866 45 90 389 389 e
0 pfi
20065 8617 45 90 389 389 e
0 pfi
20620 9104 45 90 389 389 e
0 pfi
21186 8755 45 90 389 389 e
0 pfi
21705 8156 45 90 389 389 e
0 pfi
22272 7861 45 90 389 389 e
0 pfi
22820 7550 45 90 389 389 e
0 pfi
5471 2562 5471 23070 28023 23070 28023 2562 clp
27961.226 5649.135 27370.773 5973.372 26826.276 6134.971 26324.023 6306.594 25860.592 6479.295 25432.829 6665.191 25037.817 6855.347 24672.872 7041.370 24335.501 7210.342 24023.408 7354.203
23734.468 7467.764 23466.715 7553.441 23218.322 7621.490 22987.601 7682.013 22772.975 7758.382 22572.987 7847.776 22386.271 7949.008 22211.557 8055.185 22047.659 8162.173 21893.453 8266.179
21747.891 8364.676 21609.987 8454.227 21478.796 8534.909 21353.427 8604.838 21233.024 8662.172 21116.767 8704.676 21003.865 8729.809 20893.552 8738.205 20785.072 8716.326 20677.688 8676.354
20573.216 8617.750 20471.294 8549.874 20369.372 8475.115 20267.446 8401.774 20165.524 8332.111 20063.602 8269.531 19961.676 8214.955 19859.754 8168.263 19757.832 8128.526 19655.907 8094.461
19553.985 8064.736 19452.063 8038.121 19350.137 8013.539 19248.215 7990.117 19146.293 7967.358 19044.367 7945.898 18942.445 7925.030 18840.523 7904.475 18738.598 7884.599 18636.676 7865.086
18534.754 7845.997 18432.828 7827.151 18330.906 7808.426 18228.984 7789.740 18127.059 7771.250 18025.136 7753.395 17923.214 7736.958 17821.289 7723.106 17719.367 7713.199 17617.444 7708.248
17520.616 7707.550 17425.715 7718.499 17324.297 7737.271 17216.009 7769.640 17100.489 7818.338 16977.371 7886.530 16846.299 7977.057 16706.905 8092.270 16558.839 8233.680 16401.759 8402.091
16235.332 8597.494 16059.251 8818.899 15873.231 9062.182 15677.018 9311.684 15470.397 9553.538 15253.191 9759.583 15025.276 9914.244 14786.583 10026.058 14537.101 10137.061 14276.891 10394.059
14006.083 10948.781 13724.888 11838.944 13433.596 13122.394 13132.583 14456.488 12826.813 15580.551 12496.405 16526.925 12116.697 17353.834 11689.247 18096.134 11219.072 18765.335 10714.873 19374.852
10188.687 19928.313 9654.890 20426.806 9128.703 20870.086 8624.504 21255.018 8154.328 21583.522 7726.880 21851.395 7347.172 22057.765 7016.764 22192.161 6672.856 22315.572 6290.808 22398.581
5908.765 22455.362 5526.717 22527.511 101 46 sw
2 lc
0 lj
[1 114] 0 sd
0 pbi
2879 719 2879 23761 28801 23761 28801 719 clp
5527 22528 90 120 285 285 e
1 pfi
7017 22192 90 120 285 285 e
1 pfi
8625 21255 90 120 285 285 e
1 pfi
10715 19375 90 120 285 285 e
1 pfi
12496 16527 90 120 285 285 e
1 pfi
13725 11839 90 120 285 285 e
1 pfi
14787 10026 90 120 285 285 e
1 pfi
15677 9312 90 120 285 285 e
1 pfi
16402 8402 90 120 285 285 e
1 pfi
16977 7887 90 120 285 285 e
1 pfi
17426 7718 90 120 285 285 e
1 pfi
17821 7723 90 120 285 285 e
1 pfi
18229 7790 90 120 285 285 e
1 pfi
18637 7865 90 120 285 285 e
1 pfi
19044 7946 90 120 285 285 e
1 pfi
19452 8038 90 120 285 285 e
1 pfi
19860 8168 90 120 285 285 e
1 pfi
20267 8402 90 120 285 285 e
1 pfi
20678 8676 90 120 285 285 e
1 pfi
21117 8705 90 120 285 285 e
1 pfi
21610 8454 90 120 285 285 e
1 pfi
22212 8055 90 120 285 285 e
1 pfi
22988 7682 90 120 285 285 e
1 pfi
24023 7354 90 120 285 285 e
1 pfi
25433 6665 90 120 285 285 e
1 pfi
27371 5973 90 120 285 285 e
1 pfi
5471 2562 5471 23070 28023 23070 28023 2562 clp
27961.226 5620.684 27370.773 5942.953 26826.276 6102.077 26324.023 6271.636 25860.592 6445.019 25432.829 6632.880 25037.817 6825.751 24672.872 7014.353 24335.501 7184.680 24023.408 7328.894
23734.468 7441.138 23466.715 7523.998 23218.322 7588.255 22987.601 7645.028 22772.975 7719.788 22572.987 7809.300 22386.271 7912.342 22211.557 8021.292 22047.659 8131.688 21893.453 8239.128
21747.891 8341.399 21609.987 8434.288 21478.796 8518.245 21353.427 8591.276 21233.024 8652.282 21116.767 8698.365 21003.865 8727.107 20893.552 8737.907 20785.072 8721.951 20677.688 8680.741
20573.216 8620.837 20471.294 8549.729 20369.372 8470.766 20267.446 8393.383 20165.524 8320.645 20063.602 8255.809 19961.676 8200.335 19859.754 8154.125 19757.832 8116.171 19655.907 8085.011
19553.985 8058.997 19452.063 8036.561 19350.137 8016.316 19248.215 7997.157 19146.293 7978.412 19044.367 7960.306 18942.445 7942.443 18840.523 7924.251 18738.598 7906.070 18636.676 7887.550
18534.754 7868.690 18432.828 7849.237 18330.906 7829.000 18228.984 7807.893 18127.059 7786.085 18025.136 7764.097 17923.214 7742.822 17821.289 7723.564 17719.367 7707.942 17617.444 7697.612
17520.616 7693.373 17425.715 7695.480 17324.297 7711.514 17216.009 7739.225 17100.489 7784.726 16977.371 7850.585 16846.299 7939.948 16706.905 8055.048 16558.839 8197.447 16401.759 8367.896
16235.332 8566.244 16059.251 8791.152 15873.231 9038.792 15677.018 9292.073 15470.397 9536.222 15253.191 9741.892 15025.276 9892.319 14786.583 9995.530 14537.101 10094.213 14276.891 10330.634
14006.083 10877.121 13724.888 11765.571 13433.596 13060.297 13132.583 14442.632 12826.813 15608.482 12496.405 16565.467 12116.697 17389.834 11689.247 18127.572 11219.072 18792.336 10714.873 19398.624
10188.687 19949.836 9654.890 20446.709 9128.703 20888.777 8624.504 21272.855 8154.328 21601.141 7726.880 21870.256 7347.172 22076.297 7016.764 22210.271 6672.856 22333.717 6290.808 22413.228
5908.765 22471.910 5526.717 22543.006 101 46 sw
2 lc
0 lj
[1 114] 0 sd
0 pbi
2879 719 2879 23761 28801 23761 28801 719 clp
5527 22543 0 30 194 194 e
3 pfi
7017 22210 0 30 194 194 e
3 pfi
8625 21273 0 30 194 194 e
3 pfi
10715 19399 0 30 194 194 e
3 pfi
12496 16565 0 30 194 194 e
3 pfi
13725 11766 0 30 194 194 e
3 pfi
14787 9996 0 30 194 194 e
3 pfi
15677 9292 0 30 194 194 e
3 pfi
16402 8368 0 30 194 194 e
3 pfi
16977 7851 0 30 194 194 e
3 pfi
17426 7695 0 30 194 194 e
3 pfi
17821 7724 0 30 194 194 e
3 pfi
18229 7808 0 30 194 194 e
3 pfi
18637 7888 0 30 194 194 e
3 pfi
19044 7960 0 30 194 194 e
3 pfi
19452 8037 0 30 194 194 e
3 pfi
19860 8154 0 30 194 194 e
3 pfi
20267 8393 0 30 194 194 e
3 pfi
20678 8681 0 30 194 194 e
3 pfi
21117 8698 0 30 194 194 e
3 pfi
21610 8434 0 30 194 194 e
3 pfi
22212 8021 0 30 194 194 e
3 pfi
22988 7645 0 30 194 194 e
3 pfi
24023 7329 0 30 194 194 e
3 pfi
25433 6633 0 30 194 194 e
3 pfi
27371 5943 0 30 194 194 e
3 pfi
5471 2562 5471 23070 28023 23070 28023 2562 clp
2879 719 2879 23761 28801 23761 28801 719 clp
0 z x 23 sw
0 lc
0 lj
[] 0 sd
5641 2563 m
5641 2840 l
s
6253 2563 m
6253 2840 l
s
7476 2563 m
7476 2840 l
s
8088 2563 m
8088 2840 l
s
8699 2563 m
8699 2840 l
s
9311 2563 m
9311 2840 l
s
10534 2563 m
10534 2840 l
s
11145 2563 m
11145 2840 l
s
11757 2563 m
11757 2840 l
s
12368 2563 m
12368 2840 l
s
13591 2563 m
13591 2840 l
s
14203 2563 m
14203 2840 l
s
14815 2563 m
14815 2840 l
s
15426 2563 m
15426 2840 l
s
16649 2563 m
16649 2840 l
s
17261 2563 m
17261 2840 l
s
17872 2563 m
17872 2840 l
s
18484 2563 m
18484 2840 l
s
19707 2563 m
19707 2840 l
s
20318 2563 m
20318 2840 l
s
20930 2563 m
20930 2840 l
s
21541 2563 m
21541 2840 l
s
22765 2563 m
22765 2840 l
s
23376 2563 m
23376 2840 l
s
23988 2563 m
23988 2840 l
s
24599 2563 m
24599 2840 l
s
25822 2563 m
25822 2840 l
s
26434 2563 m
26434 2840 l
s
27045 2563 m
27045 2840 l
s
27657 2563 m
27657 2840 l
s
92 sw
6865 2563 m
6865 3024 l
s
9922 2563 m
9922 3024 l
s
12980 2563 m
12980 3024 l
s
16038 2563 m
16038 3024 l
s
19095 2563 m
19095 3024 l
s
22153 2563 m
22153 3024 l
s
25211 2563 m
25211 3024 l
s
2 lc
5472 2563 m
28022 2563 l
s
23 sw
0 lc
5472 2706 m
5748 2706 l
s
5472 3490 m
5748 3490 l
s
5472 5057 m
5748 5057 l
s
5472 5840 m
5748 5840 l
s
5472 6623 m
5748 6623 l
s
5472 7407 m
5748 7407 l
s
5472 8974 m
5748 8974 l
s
5472 9757 m
5748 9757 l
s
5472 10541 m
5748 10541 l
s
5472 11324 m
5748 11324 l
s
5472 12891 m
5748 12891 l
s
5472 13675 m
5748 13675 l
s
5472 14458 m
5748 14458 l
s
5472 15242 m
5748 15242 l
s
5472 16809 m
5748 16809 l
s
5472 17592 m
5748 17592 l
s
5472 18376 m
5748 18376 l
s
5472 19159 m
5748 19159 l
s
5472 20726 m
5748 20726 l
s
5472 21509 m
5748 21509 l
s
5472 22293 m
5748 22293 l
s
92 sw
5472 4273 m
5933 4273 l
s
5472 8190 m
5933 8190 l
s
5472 12108 m
5933 12108 l
s
5472 16025 m
5933 16025 l
s
5472 19943 m
5933 19943 l
s
2 lc
5472 2563 m
5472 23069 l
s
829.44 fhb
12738 1078 m
(A) sh
13343 1078 m
(x) sh
13810 1078 m
(i) sh
14034 1078 m
(a) sh
14501 1078 m
(l) sh
14725 1078 m
( ) sh
14950 1078 m
(d) sh
15451 1078 m
(i) sh
15676 1078 m
(s) sh
16142 1078 m
(t) sh
16419 1078 m
(a) sh
16885 1078 m
(n) sh
17387 1078 m
(c) sh
17853 1078 m
(e) sh
18320 1078 m
(,) sh
18544 1078 m
( ) sh
18769 1078 m
(x) sh
19236 1078 m
( ) sh
19460 1078 m
(\() sh
19737 1078 m
(m) sh
20480 1078 m
(\)) sh
829.44 fhb
3658 7855 m
gs 90.0 ro
(P) sh
gr
3658 8408 m
gs 90.0 ro
(r) sh
gr
3658 8736 m
gs 90.0 ro
(e) sh
gr
3658 9203 m
gs 90.0 ro
(s) sh
gr
3658 9669 m
gs 90.0 ro
(s) sh
gr
3658 10136 m
gs 90.0 ro
(u) sh
gr
3658 10637 m
gs 90.0 ro
(r) sh
gr
3658 10965 m
gs 90.0 ro
(e) sh
gr
3658 11432 m
gs 90.0 ro
( ) sh
gr
3658 11657 m
gs 90.0 ro
(r) sh
gr
3658 11985 m
gs 90.0 ro
(a) sh
gr
3658 12451 m
gs 90.0 ro
(t) sh
gr
3658 12728 m
gs 90.0 ro
(i) sh
gr
3658 12953 m
gs 90.0 ro
(o) sh
gr
3658 13454 m
gs 90.0 ro
(,) sh
gr
3658 13678 m
gs 90.0 ro
( ) sh
gr
3658 13903 m
gs 90.0 ro
(p) sh
gr
3658 14404 m
gs 90.0 ro
(/) sh
gr
3658 14629 m
gs 90.0 ro
(p) sh
gr
497.664 fhb
3906 15130 m
gs 90.0 ro
(0) sh
gr
3906 15410 m
gs 90.0 ro
(,) sh
gr
3906 15545 m
gs 90.0 ro
(i) sh
gr
3906 15679 m
gs 90.0 ro
(n) sh
gr
829.44 fhb
3658 15980 m
gs 90.0 ro
( ) sh
gr
3658 16205 m
gs 90.0 ro
(\() sh
gr
3658 16481 m
gs 90.0 ro
(P) sh
gr
3658 17034 m
gs 90.0 ro
(a) sh
gr
3658 17501 m
gs 90.0 ro
(\)) sh
gr
691.2 fhn
6274 1863 m
(\255) sh
6490 1863 m
(0) sh
6879 1863 m
(.) sh
7066 1863 m
(2) sh
691.2 fhn
9332 1863 m
(\255) sh
9548 1863 m
(0) sh
9937 1863 m
(.) sh
10124 1863 m
(1) sh
691.2 fhn
12786 1863 m
(0) sh
691.2 fhn
15555 1863 m
(0) sh
15944 1863 m
(.) sh
16131 1863 m
(1) sh
691.2 fhn
18613 1863 m
(0) sh
19002 1863 m
(.) sh
19189 1863 m
(2) sh
691.2 fhn
21671 1863 m
(0) sh
22059 1863 m
(.) sh
22247 1863 m
(3) sh
691.2 fhn
24728 1863 m
(0) sh
25117 1863 m
(.) sh
25304 1863 m
(4) sh
691.2 fhn
4248 4038 m
(0) sh
4637 4038 m
(.) sh
4824 4038 m
(3) sh
691.2 fhn
4248 7955 m
(0) sh
4637 7955 m
(.) sh
4824 7955 m
(4) sh
691.2 fhn
4248 11873 m
(0) sh
4637 11873 m
(.) sh
4824 11873 m
(5) sh
691.2 fhn
4248 15790 m
(0) sh
4637 15790 m
(.) sh
4824 15790 m
(6) sh
691.2 fhn
4248 19708 m
(0) sh
4637 19708 m
(.) sh
4824 19708 m
(7) sh
691.2 fhb
16970 16922 m
(E) sh
17430 16922 m
(x) sh
17819 16922 m
(p) sh
18237 16922 m
(e) sh
18626 16922 m
(r) sh
18899 16922 m
(i) sh
19086 16922 m
(m) sh
19706 16922 m
(e) sh
20094 16922 m
(n) sh
20512 16922 m
(t) sh
20742 16922 m
( ) sh
20930 16922 m
(b) sh
21347 16922 m
(y) sh
21736 16922 m
( ) sh
21923 16922 m
(M) sh
22499 16922 m
(o) sh
22917 16922 m
(o) sh
23334 16922 m
(r) sh
23608 16922 m
(e) sh
23997 16922 m
( ) sh
24184 16922 m
(e) sh
24573 16922 m
(t) sh
24803 16922 m
(.) sh
24990 16922 m
( ) sh
25178 16922 m
(a) sh
25566 16922 m
(l) sh
25754 16922 m
(.) sh
25941 16922 m
( ) sh
26128 16922 m
(\() sh
26358 16922 m
(1) sh
26747 16922 m
(9) sh
27136 16922 m
(7) sh
27525 16922 m
(3) sh
27914 16922 m
(\)) sh
691.2 fhb
16970 15955 m
(R) sh
17474 15955 m
(o) sh
17891 15955 m
(e) sh
18280 15955 m
(M) sh
18856 15955 m
(_) sh
19245 15955 m
(N) sh
691.2 fhb
16970 14987 m
(A) sh
17474 14987 m
(U) sh
17978 14987 m
(S) sh
18438 14987 m
(M) sh
19014 14987 m
(P) sh
19475 14987 m
(W) sh
20123 14987 m
(+) sh
20526 14987 m
(_) sh
20915 14987 m
(N) sh
14896 17130 45 90 389 389 e
0 pfi
46 sw
[1 114] 0 sd
13341 16162 m
16451 16162 l
s
14896 16162 90 120 285 285 e
1 pfi
0 z x 13341 15194 m
16451 15194 l
s
14896 15194 0 30 194 194 e
3 pfi
gr end
showpage
