%!PS-Adobe-2.0
%%Creator: TECPLOT
%%Pages:1
%%BoundingBox: 71 17 721 595
%%DocumentFonts: Helvetica Helvetica-Bold Symbol Times-Roman Times-Bold Times-Italic Times-BoldItalic Courier Courier-Bold
%%EndComments
/tecplotdict 120 dict def
tecplotdict begin
/ed  {exch def} def
/ftl {findfont exch scalefont setfont} def
/ftr {/ISOLatin1-Times-Roman ftl} def
/ftb {/ISOLatin1-Times-Bold ftl} def
/fti {/ISOLatin1-Times-Italic ftl} def
/ftib {/ISOLatin1-Times-BoldItalic ftl} def
/fcr {/ISOLatin1-Courier ftl} def
/fcb {/ISOLatin1-Courier-Bold ftl} def
/fhn {/ISOLatin1-Helvetica ftl} def
/fhb {/ISOLatin1-Helvetica-Bold ftl} def
/fsy {/Symbol ftl} def
/gs /gsave load def
/gr /grestore load def
/np /newpath load def
/cp /closepath load def
/g /setgray load def
/lc {setlinecap} def
/lj /setlinejoin load def
/x /setrgbcolor load def
/sd /setdash load def
/sw {setlinewidth} def
/cpt /currentpoint load def
/m {moveto} def
/rm /rmoveto load def
/l /lineto load def
/r /rlineto load def
/sf /setflat load def
/s /stroke load def
/q {cpt s m} def
/ro /rotate load def
/sh /show load def
/clp {cp gr gs np m l l l cp clip np cp} def
/dorect
{
/height ed
/width  ed
m
0 height r
width 0 r
0 height neg r
cp
} def
/er {cp np dorect g fill 0 g cp} def
/erc {cp np dorect x fill 0 g cp} def
/br {cp np dorect g cp s} def
/brc {cp np dorect x cp s} def
/ii 0 def
/n 0 def
/CurA 0 def
/Ry 0 def
/Rx 0 def
/CA 0 def
/SA 0 def
/SJ 0 def
/SI 0 def
/bi 0 def
/i 0 def
/ib 0 def
/ig 0 def
/ir 0 def
/ishade 0 def
/bshade 0 def
/dcs
{
m
dup dup dup
-2 div dup
rm
0 r
0 exch r
neg 0 r
cp
} bind def
/pg
{
/size ed
/Ny ed
/Nx ed
/Y2 ed
/X2 ed
/Y1 ed
/X1 ed
Ny 1 gt
{/Dy Y2 Y1 sub Ny 1 sub div def}
{/Dy 0.0 def}
ifelse
Nx 1 gt
{/Dx X2 X1 sub Nx 1 sub div def}
{/Dx 0.0 def}
ifelse
Y1 Dy Y2 Dy 2 div add
{
X1 Dx X2 Dx 2 div add
{
1 index
size 3 1 roll
dcs fill
Dx 0.0 eq
{exit}
if
} for
pop
Dy 0.0 eq
{exit}
if
} for
} bind def
/z
{
/ii ed
rea ii get
gra ii get
bla ii get
} def
/lrgb
{
/blue ed
/green ed
/red ed
bla numColors blue put
gra numColors green put
rea numColors red put
numColors 1 add /numColors ed
} def
/trace
{
cp np
m
1 1 n 
{
pop
l
} for
cp
} def
/pf
{
/ishade ed
/n ed 
s
trace
ishade g fill
} def
/pb
{
/bshade ed
/n ed 
m
1 1 n 
{
pop
l
} for
bshade g s
} def
/pfb
{
/bshade ed
/ishade ed
/n ed 
s 
n 2 mul 2 add copy
trace
ishade g fill
trace
bshade g s
} def
/pfi
{
/i ed
/n ed 
s 
trace
i z x fill
} def
/pbi
{
/i ed
/n ed 
m
1 1 n 
{
pop
l
} for
i z x s
} def
/pfbi
{
/ii ed
/bi ed
/n ed 
s 
n 2 mul 2 add copy
trace
ii z x fill
trace
bi z x s
} def
/pfr
{
/ib ed
/ig ed
/ir ed
/n ed 
s 
trace
ir ig ib x fill
} def
/pbr
{
/ib ed
/ig ed
/ir ed
/n ed 
m
1 1 n 
{
pop
l
} for
ir ig ib x s
} def
/pfbr
{
/ib ed
/ig ed
/ir ed
/ibb ed
/ibg ed
/ibr ed
/n ed
s
n 2 mul 2 add copy
trace
ir ig ib x fill
trace
ibr ibg ibb x s
} def
/e
{
/Ry ed
/Rx ed
/CA ed
/SA ed
/SJ ed
/SI ed
/N 0 def
SA
CA
SA 360 add
{
/CurA ed
/CX CurA cos Rx mul def
/CY CurA sin Ry mul def
SI CX add 
SJ CY add 
/N N 1 add def
}
for
SI SA cos Rx mul add
SJ SA sin Ry mul add
N
} def
%%EndProlog
%%Page:? 1
/getisofont
{
findfont
dup length dict begin
{
1 index /FID ne {def}{pop pop} ifelse
} forall
/Encoding ISOLatin1Encoding def
currentdict
end
} def
/Helvetica             getisofont /ISOLatin1-Helvetica             exch definefont pop
/Helvetica-Bold        getisofont /ISOLatin1-Helvetica-Bold        exch definefont pop
/Helvetica-Oblique     getisofont /ISOLatin1-Helvetica-Oblique     exch definefont pop
/Helvetica-BoldOblique getisofont /ISOLatin1-Helvetica-BoldOblique exch definefont pop
/Times-Roman           getisofont /ISOLatin1-Times-Roman           exch definefont pop
/Times-Bold            getisofont /ISOLatin1-Times-Bold            exch definefont pop
/Times-BoldItalic      getisofont /ISOLatin1-Times-BoldItalic      exch definefont pop
/Times-Italic          getisofont /ISOLatin1-Times-Italic          exch definefont pop
/Courier               getisofont /ISOLatin1-Courier               exch definefont pop
/Courier-Bold          getisofont /ISOLatin1-Courier-Bold          exch definefont pop
/Courier-Oblique       getisofont /ISOLatin1-Courier-Oblique       exch definefont pop
/Courier-BoldOblique   getisofont /ISOLatin1-Courier-BoldOblique   exch definefont pop
0 /numColors ed
/rea 468 array def
/gra 468 array def
/bla 468 array def
0 0 0 lrgb
0.824 0 0 lrgb
0 0.824 0 lrgb
0.176 0.176 1 lrgb
0 1 1 lrgb
1 1 0.176 lrgb
1 0 1 lrgb
1 1 1 lrgb
0.333 0.333 0.333 lrgb
0.831 0.831 0.831 lrgb
1 0.498 0 lrgb
0.498 1 0 lrgb
0 1 0.498 lrgb
0 0.498 1 lrgb
0.498 0 1 lrgb
1 0 0.498 lrgb
0.333 0 0 lrgb
1 0.667 0.667 lrgb
1 0.667 0.333 lrgb
0.333 1 0.333 lrgb
0.333 1 0.667 lrgb
0.333 0.333 1 lrgb
0.667 0.333 1 lrgb
1 0.333 0.333 lrgb
0.333 0.333 0 lrgb
1 1 0.667 lrgb
1 1 0.333 lrgb
0 1 0.333 lrgb
0.333 1 1 lrgb
0.333 0 1 lrgb
1 0.333 1 lrgb
1 0.333 0 lrgb
0 0.333 0 lrgb
0.667 1 0.667 lrgb
0.667 1 0.333 lrgb
0 0.667 0.333 lrgb
0.333 0.667 1 lrgb
0.333 0 0.667 lrgb
1 0.333 0.667 lrgb
0.667 0.333 0 lrgb
0 0.333 0.333 lrgb
0.667 1 1 lrgb
0.667 1 0 lrgb
0 0.667 0 lrgb
0 0.667 1 lrgb
0 0 0.667 lrgb
1 0 0.667 lrgb
0.667 0 0 lrgb
0 0 0.333 lrgb
0.667 0.667 1 lrgb
0.667 0.667 0 lrgb
0.333 0.667 0 lrgb
0 0.667 0.667 lrgb
0 0.333 0.667 lrgb
0.667 0 0.667 lrgb
0.667 0 0.333 lrgb
0.333 0 0.333 lrgb
1 0.667 1 lrgb
0.667 0.667 0.333 lrgb
0.333 0.667 0.333 lrgb
0.333 0.667 0.667 lrgb
0.333 0.333 0.667 lrgb
0.667 0.333 0.667 lrgb
0.667 0.333 0.333 lrgb
0.588 0.588 0.588 lrgb
0.412 0.412 0.412 lrgb
0 0 0 lrgb
0 0 1 lrgb
0 0.0118 1 lrgb
0 0.0196 1 lrgb
0 0.0314 1 lrgb
0 0.0392 1 lrgb
0 0.051 1 lrgb
0 0.0588 1 lrgb
0 0.0706 1 lrgb
0 0.0784 1 lrgb
0 0.0902 1 lrgb
0 0.098 1 lrgb
0 0.11 1 lrgb
0 0.122 1 lrgb
0 0.129 1 lrgb
0 0.141 1 lrgb
0 0.149 1 lrgb
0 0.161 1 lrgb
0 0.169 1 lrgb
0 0.18 1 lrgb
0 0.188 1 lrgb
0 0.2 1 lrgb
0 0.212 1 lrgb
0 0.22 1 lrgb
0 0.231 1 lrgb
0 0.239 1 lrgb
0 0.251 1 lrgb
0 0.259 1 lrgb
0 0.271 1 lrgb
0 0.278 1 lrgb
0 0.29 1 lrgb
0 0.298 1 lrgb
0 0.31 1 lrgb
0 0.322 1 lrgb
0 0.329 1 lrgb
0 0.341 1 lrgb
0 0.349 1 lrgb
0 0.361 1 lrgb
0 0.369 1 lrgb
0 0.38 1 lrgb
0 0.388 1 lrgb
0 0.4 1 lrgb
0 0.412 1 lrgb
0 0.42 1 lrgb
0 0.431 1 lrgb
0 0.439 1 lrgb
0 0.451 1 lrgb
0 0.459 1 lrgb
0 0.471 1 lrgb
0 0.478 1 lrgb
0 0.49 1 lrgb
0 0.498 1 lrgb
0 0.51 1 lrgb
0 0.522 1 lrgb
0 0.529 1 lrgb
0 0.541 1 lrgb
0 0.549 1 lrgb
0 0.561 1 lrgb
0 0.569 1 lrgb
0 0.58 1 lrgb
0 0.588 1 lrgb
0 0.6 1 lrgb
0 0.612 1 lrgb
0 0.62 1 lrgb
0 0.631 1 lrgb
0 0.639 1 lrgb
0 0.651 1 lrgb
0 0.659 1 lrgb
0 0.671 1 lrgb
0 0.678 1 lrgb
0 0.69 1 lrgb
0 0.698 1 lrgb
0 0.71 1 lrgb
0 0.722 1 lrgb
0 0.729 1 lrgb
0 0.741 1 lrgb
0 0.749 1 lrgb
0 0.761 1 lrgb
0 0.769 1 lrgb
0 0.78 1 lrgb
0 0.788 1 lrgb
0 0.8 1 lrgb
0 0.812 1 lrgb
0 0.82 1 lrgb
0 0.831 1 lrgb
0 0.839 1 lrgb
0 0.851 1 lrgb
0 0.859 1 lrgb
0 0.871 1 lrgb
0 0.878 1 lrgb
0 0.89 1 lrgb
0 0.898 1 lrgb
0 0.91 1 lrgb
0 0.922 1 lrgb
0 0.929 1 lrgb
0 0.941 1 lrgb
0 0.949 1 lrgb
0 0.961 1 lrgb
0 0.969 1 lrgb
0 0.98 1 lrgb
0 0.988 1 lrgb
0 1 1 lrgb
0 1 0.988 lrgb
0 1 0.98 lrgb
0 1 0.969 lrgb
0 1 0.961 lrgb
0 1 0.949 lrgb
0 1 0.941 lrgb
0 1 0.929 lrgb
0 1 0.922 lrgb
0 1 0.91 lrgb
0 1 0.898 lrgb
0 1 0.89 lrgb
0 1 0.878 lrgb
0 1 0.871 lrgb
0 1 0.859 lrgb
0 1 0.851 lrgb
0 1 0.839 lrgb
0 1 0.831 lrgb
0 1 0.82 lrgb
0 1 0.812 lrgb
0 1 0.8 lrgb
0 1 0.788 lrgb
0 1 0.78 lrgb
0 1 0.769 lrgb
0 1 0.761 lrgb
0 1 0.749 lrgb
0 1 0.741 lrgb
0 1 0.729 lrgb
0 1 0.722 lrgb
0 1 0.71 lrgb
0 1 0.698 lrgb
0 1 0.69 lrgb
0 1 0.678 lrgb
0 1 0.671 lrgb
0 1 0.659 lrgb
0 1 0.651 lrgb
0 1 0.639 lrgb
0 1 0.631 lrgb
0 1 0.62 lrgb
0 1 0.612 lrgb
0 1 0.6 lrgb
0 1 0.588 lrgb
0 1 0.58 lrgb
0 1 0.569 lrgb
0 1 0.561 lrgb
0 1 0.549 lrgb
0 1 0.541 lrgb
0 1 0.529 lrgb
0 1 0.522 lrgb
0 1 0.51 lrgb
0 1 0.498 lrgb
0 1 0.49 lrgb
0 1 0.478 lrgb
0 1 0.471 lrgb
0 1 0.459 lrgb
0 1 0.451 lrgb
0 1 0.439 lrgb
0 1 0.431 lrgb
0 1 0.42 lrgb
0 1 0.412 lrgb
0 1 0.4 lrgb
0 1 0.388 lrgb
0 1 0.38 lrgb
0 1 0.369 lrgb
0 1 0.361 lrgb
0 1 0.349 lrgb
0 1 0.341 lrgb
0 1 0.329 lrgb
0 1 0.322 lrgb
0 1 0.31 lrgb
0 1 0.298 lrgb
0 1 0.29 lrgb
0 1 0.278 lrgb
0 1 0.271 lrgb
0 1 0.259 lrgb
0 1 0.251 lrgb
0 1 0.239 lrgb
0 1 0.231 lrgb
0 1 0.22 lrgb
0 1 0.212 lrgb
0 1 0.2 lrgb
0 1 0.188 lrgb
0 1 0.18 lrgb
0 1 0.169 lrgb
0 1 0.161 lrgb
0 1 0.149 lrgb
0 1 0.141 lrgb
0 1 0.129 lrgb
0 1 0.122 lrgb
0 1 0.11 lrgb
0 1 0.098 lrgb
0 1 0.0902 lrgb
0 1 0.0784 lrgb
0 1 0.0706 lrgb
0 1 0.0588 lrgb
0 1 0.051 lrgb
0 1 0.0392 lrgb
0 1 0.0314 lrgb
0 1 0.0196 lrgb
0 1 0.0118 lrgb
0 1 0 lrgb
0.0118 1 0 lrgb
0.0196 1 0 lrgb
0.0314 1 0 lrgb
0.0392 1 0 lrgb
0.051 1 0 lrgb
0.0588 1 0 lrgb
0.0706 1 0 lrgb
0.0784 1 0 lrgb
0.0902 1 0 lrgb
0.098 1 0 lrgb
0.11 1 0 lrgb
0.122 1 0 lrgb
0.129 1 0 lrgb
0.141 1 0 lrgb
0.149 1 0 lrgb
0.161 1 0 lrgb
0.169 1 0 lrgb
0.18 1 0 lrgb
0.188 1 0 lrgb
0.2 1 0 lrgb
0.212 1 0 lrgb
0.22 1 0 lrgb
0.231 1 0 lrgb
0.239 1 0 lrgb
0.251 1 0 lrgb
0.259 1 0 lrgb
0.271 1 0 lrgb
0.278 1 0 lrgb
0.29 1 0 lrgb
0.298 1 0 lrgb
0.31 1 0 lrgb
0.322 1 0 lrgb
0.329 1 0 lrgb
0.341 1 0 lrgb
0.349 1 0 lrgb
0.361 1 0 lrgb
0.369 1 0 lrgb
0.38 1 0 lrgb
0.388 1 0 lrgb
0.4 1 0 lrgb
0.412 1 0 lrgb
0.42 1 0 lrgb
0.431 1 0 lrgb
0.439 1 0 lrgb
0.451 1 0 lrgb
0.459 1 0 lrgb
0.471 1 0 lrgb
0.478 1 0 lrgb
0.49 1 0 lrgb
0.498 1 0 lrgb
0.51 1 0 lrgb
0.522 1 0 lrgb
0.529 1 0 lrgb
0.541 1 0 lrgb
0.549 1 0 lrgb
0.561 1 0 lrgb
0.569 1 0 lrgb
0.58 1 0 lrgb
0.588 1 0 lrgb
0.6 1 0 lrgb
0.612 1 0 lrgb
0.62 1 0 lrgb
0.631 1 0 lrgb
0.639 1 0 lrgb
0.651 1 0 lrgb
0.659 1 0 lrgb
0.671 1 0 lrgb
0.678 1 0 lrgb
0.69 1 0 lrgb
0.698 1 0 lrgb
0.71 1 0 lrgb
0.722 1 0 lrgb
0.729 1 0 lrgb
0.741 1 0 lrgb
0.749 1 0 lrgb
0.761 1 0 lrgb
0.769 1 0 lrgb
0.78 1 0 lrgb
0.788 1 0 lrgb
0.8 1 0 lrgb
0.812 1 0 lrgb
0.82 1 0 lrgb
0.831 1 0 lrgb
0.839 1 0 lrgb
0.851 1 0 lrgb
0.859 1 0 lrgb
0.871 1 0 lrgb
0.878 1 0 lrgb
0.89 1 0 lrgb
0.898 1 0 lrgb
0.91 1 0 lrgb
0.922 1 0 lrgb
0.929 1 0 lrgb
0.941 1 0 lrgb
0.949 1 0 lrgb
0.961 1 0 lrgb
0.969 1 0 lrgb
0.98 1 0 lrgb
0.988 1 0 lrgb
1 1 0 lrgb
1 0.988 0 lrgb
1 0.98 0 lrgb
1 0.969 0 lrgb
1 0.961 0 lrgb
1 0.949 0 lrgb
1 0.941 0 lrgb
1 0.929 0 lrgb
1 0.922 0 lrgb
1 0.91 0 lrgb
1 0.898 0 lrgb
1 0.89 0 lrgb
1 0.878 0 lrgb
1 0.871 0 lrgb
1 0.859 0 lrgb
1 0.851 0 lrgb
1 0.839 0 lrgb
1 0.831 0 lrgb
1 0.82 0 lrgb
1 0.812 0 lrgb
1 0.8 0 lrgb
1 0.788 0 lrgb
1 0.78 0 lrgb
1 0.769 0 lrgb
1 0.761 0 lrgb
1 0.749 0 lrgb
1 0.741 0 lrgb
1 0.729 0 lrgb
1 0.722 0 lrgb
1 0.71 0 lrgb
1 0.698 0 lrgb
1 0.69 0 lrgb
1 0.678 0 lrgb
1 0.671 0 lrgb
1 0.659 0 lrgb
1 0.651 0 lrgb
1 0.639 0 lrgb
1 0.631 0 lrgb
1 0.62 0 lrgb
1 0.612 0 lrgb
1 0.6 0 lrgb
1 0.588 0 lrgb
1 0.58 0 lrgb
1 0.569 0 lrgb
1 0.561 0 lrgb
1 0.549 0 lrgb
1 0.541 0 lrgb
1 0.529 0 lrgb
1 0.522 0 lrgb
1 0.51 0 lrgb
1 0.498 0 lrgb
1 0.49 0 lrgb
1 0.478 0 lrgb
1 0.471 0 lrgb
1 0.459 0 lrgb
1 0.451 0 lrgb
1 0.439 0 lrgb
1 0.431 0 lrgb
1 0.42 0 lrgb
1 0.412 0 lrgb
1 0.4 0 lrgb
1 0.388 0 lrgb
1 0.38 0 lrgb
1 0.369 0 lrgb
1 0.361 0 lrgb
1 0.349 0 lrgb
1 0.341 0 lrgb
1 0.329 0 lrgb
1 0.322 0 lrgb
1 0.31 0 lrgb
1 0.298 0 lrgb
1 0.29 0 lrgb
1 0.278 0 lrgb
1 0.271 0 lrgb
1 0.259 0 lrgb
1 0.251 0 lrgb
1 0.239 0 lrgb
1 0.231 0 lrgb
1 0.22 0 lrgb
1 0.212 0 lrgb
1 0.2 0 lrgb
1 0.188 0 lrgb
1 0.18 0 lrgb
1 0.169 0 lrgb
1 0.161 0 lrgb
1 0.149 0 lrgb
1 0.141 0 lrgb
1 0.129 0 lrgb
1 0.122 0 lrgb
1 0.11 0 lrgb
1 0.098 0 lrgb
1 0.0902 0 lrgb
1 0.0784 0 lrgb
1 0.0706 0 lrgb
1 0.0588 0 lrgb
1 0.051 0 lrgb
1 0.0392 0 lrgb
1 0.0314 0 lrgb
1 0.0196 0 lrgb
1 0.0118 0 lrgb
1 0 0 lrgb
5 setmiterlimit
0.025 0.025 scale np
gs
5471 2562 5471 23070 28023 23070 28023 2562 clp
2879 719 2879 23761 28801 23761 28801 719 clp
13191 13783 45 90 389 389 e
0 pfi
13682 11041 45 90 389 389 e
0 pfi
14232 9345 45 90 389 389 e
0 pfi
14749 8452 45 90 389 389 e
0 pfi
15298 7684 45 90 389 389 e
0 pfi
15843 7055 45 90 389 389 e
0 pfi
16392 7070 45 90 389 389 e
0 pfi
16867 7687 45 90 389 389 e
0 pfi
17539 8146 45 90 389 389 e
0 pfi
18221 7703 45 90 389 389 e
0 pfi
19241 7248 45 90 389 389 e
0 pfi
20614 5879 45 90 389 389 e
0 pfi
22037 4822 45 90 389 389 e
0 pfi
22660 4505 45 90 389 389 e
0 pfi
5471 2562 5471 23070 28023 23070 28023 2562 clp
0 z x 46 sw
2 lc
0 lj
[1 114] 0 sd
5472 23066 m
5723 23023 l
5935 22999 l
6115 22975 l
6269 22951 l
6403 22926 l
6521 22900 l
6627 22873 l
6725 22844 l
6819 22815 l
6910 22782 l
7008 22745 l
7116 22698 l
7237 22642 l
7370 22574 l
7517 22493 l
7678 22397 l
7852 22287 l
8040 22161 l
8241 22019 l
8455 21862 l
8679 21689 l
8914 21503 l
9156 21300 l
9403 21084 l
9653 20855 l
9903 20614 l
10152 20363 l
10396 20102 l
10632 19833 l
10860 19558 l
11077 19279 l
11283 18998 l
11475 18715 l
11653 18433 l
11818 18154 l
11969 17878 l
12107 17608 l
12231 17344 l
12344 17088 l
12444 16842 l
12534 16605 l
12614 16380 l
12685 16167 l
12748 15967 l
12803 15781 l
12852 15609 l
12894 15451 l
12932 15305 l
12965 15172 l
12995 15047 l
13026 14916 l
13056 14780 l
13087 14639 l
13118 14493 l
13148 14345 l
13179 14196 l
13209 14041 l
13240 13881 l
13271 13709 l
13302 13530 l
13332 13344 l
13363 13152 l
13394 12954 l
13425 12749 l
13456 12536 l
13487 12317 l
13517 12090 l
13548 11855 l
13580 11614 l
13611 11369 l
13642 11120 l
13673 10874 l
13704 10630 l
13736 10398 l
13767 10184 l
13799 9989 l
13830 9807 l
13862 9640 l
13894 9489 l
13925 9354 l
13957 9236 l
13989 9135 l
14021 9050 l
14054 8980 l
14086 8923 l
14118 8880 l
14151 8847 l
14183 8824 l
14216 8811 l
14249 8801 l
14282 8801 l
14315 8804 l
14348 8809 l
14381 8816 l
14414 8824 l
14448 8833 l
14482 8841 l
14515 8846 l
14549 8849 l
14583 8851 l
14617 8850 l
14652 8848 l
14686 8844 l
14721 8838 l
14756 8828 l
14791 8815 l
14826 8798 l
14861 8778 l
14897 8755 l
14932 8728 l
14968 8699 l
15004 8666 l
15040 8630 l
15076 8591 l
15113 8550 l
15150 8505 l
15186 8458 l
15224 8408 l
15261 8355 l
15298 8300 l
15336 8242 l
15374 8181 l
15412 8119 l
15451 8054 l
15489 7987 l
15528 7919 l
15567 7849 l
15606 7777 l
15646 7705 l
15685 7631 l
15725 7558 l
15766 7484 l
15806 7411 l
15847 7339 l
15888 7268 l
15929 7198 l
15970 7132 l
16012 7069 l
16054 7012 l
16096 6960 l
16139 6914 l
16182 6874 l
16225 6841 l
16268 6817 l
16312 6799 l
16356 6795 l
16401 6801 l
16445 6817 l
16490 6844 l
16535 6885 l
16581 6938 l
16627 7005 l
16673 7086 l
16720 7180 l
16766 7286 l
16814 7402 l
16861 7529 l
16909 7664 l
16957 7809 l
17006 7956 l
17055 8102 l
17104 8244 l
17154 8377 l
17204 8500 l
17255 8612 l
17305 8708 l
17357 8785 l
17408 8833 l
17460 8868 l
17517 8863 l
17578 8840 l
17639 8795 l
17701 8732 l
17763 8654 l
17826 8565 l
17890 8467 l
17954 8362 l
18020 8252 l
18086 8139 l
18154 8024 l
18224 7907 l
18295 7790 l
18368 7673 l
18443 7558 l
18519 7443 l
18598 7333 l
18680 7227 l
18764 7131 l
18851 7048 l
18941 6981 l
19034 6938 l
19131 6910 l
19231 6912 l
19335 6923 l
19443 6942 l
19555 6942 l
19672 6933 l
19793 6907 l
19920 6859 l
20052 6787 l
20190 6695 l
20333 6585 l
20483 6460 l
20639 6323 l
20802 6175 l
20973 6020 l
21151 5855 l
21337 5685 l
21531 5519 l
21735 5359 l
21948 5213 l
22170 5085 l
22403 4978 l
22646 4886 l
22901 4799 l
23168 4704 l
23447 4595 l
23739 4468 l
24045 4322 l
24365 4159 l
24700 3983 l
25051 3796 l
25419 3609 l
25804 3427 l
26207 3255 l
26629 3095 l
27072 2944 l
27535 2812 l
28020 2563 l
s
2879 719 2879 23761 28801 23761 28801 719 clp
5472 23066 90 120 285 285 e
1 pfi
6269 22951 90 120 285 285 e
1 pfi
6725 22844 90 120 285 285 e
1 pfi
7116 22698 90 120 285 285 e
1 pfi
7678 22397 90 120 285 285 e
1 pfi
8455 21862 90 120 285 285 e
1 pfi
9403 21084 90 120 285 285 e
1 pfi
10396 20102 90 120 285 285 e
1 pfi
11283 18998 90 120 285 285 e
1 pfi
11969 17878 90 120 285 285 e
1 pfi
12444 16842 90 120 285 285 e
1 pfi
12748 15967 90 120 285 285 e
1 pfi
12932 15305 90 120 285 285 e
1 pfi
13056 14780 90 120 285 285 e
1 pfi
13179 14196 90 120 285 285 e
1 pfi
13302 13530 90 120 285 285 e
1 pfi
13425 12749 90 120 285 285 e
1 pfi
13548 11855 90 120 285 285 e
1 pfi
13673 10874 90 120 285 285 e
1 pfi
13799 9989 90 120 285 285 e
1 pfi
13925 9354 90 120 285 285 e
1 pfi
14054 8980 90 120 285 285 e
1 pfi
14183 8824 90 120 285 285 e
1 pfi
14315 8804 90 120 285 285 e
1 pfi
14448 8833 90 120 285 285 e
1 pfi
14583 8851 90 120 285 285 e
1 pfi
14721 8838 90 120 285 285 e
1 pfi
14861 8778 90 120 285 285 e
1 pfi
15004 8666 90 120 285 285 e
1 pfi
15150 8505 90 120 285 285 e
1 pfi
15298 8300 90 120 285 285 e
1 pfi
15451 8054 90 120 285 285 e
1 pfi
15606 7777 90 120 285 285 e
1 pfi
15766 7484 90 120 285 285 e
1 pfi
15929 7198 90 120 285 285 e
1 pfi
16096 6960 90 120 285 285 e
1 pfi
16268 6817 90 120 285 285 e
1 pfi
16445 6817 90 120 285 285 e
1 pfi
16627 7005 90 120 285 285 e
1 pfi
16814 7402 90 120 285 285 e
1 pfi
17006 7956 90 120 285 285 e
1 pfi
17204 8500 90 120 285 285 e
1 pfi
17408 8833 90 120 285 285 e
1 pfi
17639 8795 90 120 285 285 e
1 pfi
17890 8467 90 120 285 285 e
1 pfi
18154 8024 90 120 285 285 e
1 pfi
18443 7558 90 120 285 285 e
1 pfi
18764 7131 90 120 285 285 e
1 pfi
19131 6910 90 120 285 285 e
1 pfi
19555 6942 90 120 285 285 e
1 pfi
20052 6787 90 120 285 285 e
1 pfi
20639 6323 90 120 285 285 e
1 pfi
21337 5685 90 120 285 285 e
1 pfi
22170 5085 90 120 285 285 e
1 pfi
23168 4704 90 120 285 285 e
1 pfi
24365 4159 90 120 285 285 e
1 pfi
25804 3427 90 120 285 285 e
1 pfi
27535 2812 90 120 285 285 e
1 pfi
5471 2562 5471 23070 28023 23070 28023 2562 clp
0 z x 46 sw
2 lc
0 lj
[1 114] 0 sd
5472 23067 m
5723 23026 l
5935 23000 l
6115 22978 l
6269 22954 l
6403 22929 l
6521 22903 l
6627 22876 l
6725 22848 l
6819 22818 l
6910 22785 l
7008 22748 l
7116 22702 l
7237 22645 l
7370 22577 l
7517 22496 l
7678 22400 l
7852 22289 l
8040 22163 l
8241 22021 l
8455 21864 l
8679 21691 l
8914 21505 l
9156 21302 l
9403 21087 l
9653 20858 l
9903 20617 l
10152 20365 l
10396 20104 l
10632 19836 l
10860 19561 l
11077 19283 l
11283 19001 l
11475 18719 l
11653 18438 l
11818 18159 l
11969 17884 l
12107 17614 l
12231 17351 l
12344 17096 l
12444 16850 l
12534 16615 l
12614 16391 l
12685 16179 l
12748 15980 l
12803 15795 l
12852 15624 l
12894 15466 l
12932 15322 l
12965 15190 l
12995 15066 l
13026 14934 l
13056 14799 l
13087 14658 l
13118 14512 l
13148 14360 l
13179 14215 l
13209 14064 l
13240 13897 l
13271 13722 l
13302 13541 l
13332 13354 l
13363 13161 l
13394 12961 l
13425 12753 l
13456 12538 l
13487 12315 l
13517 12083 l
13548 11844 l
13580 11599 l
13611 11349 l
13642 11097 l
13673 10848 l
13704 10602 l
13736 10369 l
13767 10154 l
13799 9954 l
13830 9769 l
13862 9602 l
13894 9451 l
13925 9318 l
13957 9203 l
13989 9105 l
14021 9023 l
14054 8956 l
14086 8903 l
14118 8862 l
14151 8832 l
14183 8810 l
14216 8798 l
14249 8789 l
14282 8790 l
14315 8794 l
14348 8800 l
14381 8808 l
14414 8819 l
14448 8830 l
14482 8840 l
14515 8847 l
14549 8851 l
14583 8854 l
14617 8855 l
14652 8854 l
14686 8852 l
14721 8846 l
14756 8836 l
14791 8824 l
14826 8807 l
14861 8787 l
14897 8763 l
14932 8736 l
14968 8706 l
15004 8673 l
15040 8637 l
15076 8598 l
15113 8556 l
15150 8511 l
15186 8464 l
15224 8413 l
15261 8361 l
15298 8305 l
15336 8247 l
15374 8187 l
15412 8124 l
15451 8059 l
15489 7992 l
15528 7923 l
15567 7853 l
15606 7780 l
15646 7707 l
15685 7633 l
15725 7559 l
15766 7484 l
15806 7410 l
15847 7336 l
15888 7264 l
15929 7194 l
15970 7126 l
16012 7063 l
16054 7004 l
16096 6951 l
16139 6903 l
16182 6862 l
16225 6828 l
16268 6804 l
16312 6785 l
16356 6781 l
16401 6787 l
16445 6804 l
16490 6832 l
16535 6874 l
16581 6929 l
16627 6998 l
16673 7081 l
16720 7177 l
16766 7286 l
16814 7406 l
16861 7539 l
16909 7680 l
16957 7829 l
17006 7980 l
17055 8130 l
17104 8275 l
17154 8409 l
17204 8533 l
17255 8647 l
17305 8743 l
17357 8818 l
17408 8865 l
17460 8896 l
17517 8888 l
17578 8860 l
17639 8811 l
17701 8744 l
17763 8662 l
17826 8570 l
17890 8469 l
17954 8363 l
18020 8252 l
18086 8138 l
18154 8021 l
18224 7903 l
18295 7785 l
18368 7667 l
18443 7550 l
18519 7435 l
18598 7322 l
18680 7215 l
18764 7118 l
18851 7035 l
18941 6970 l
19034 6928 l
19131 6906 l
19231 6911 l
19335 6924 l
19443 6943 l
19555 6953 l
19672 6945 l
19793 6919 l
19920 6870 l
20052 6797 l
20190 6702 l
20333 6590 l
20483 6464 l
20639 6326 l
20802 6178 l
20973 6022 l
21151 5856 l
21337 5686 l
21531 5519 l
21735 5358 l
21948 5212 l
22170 5085 l
22403 4979 l
22646 4890 l
22901 4803 l
23168 4709 l
23447 4600 l
23739 4473 l
24045 4327 l
24365 4163 l
24700 3987 l
25051 3799 l
25419 3612 l
25804 3430 l
26207 3258 l
26629 3099 l
27072 2948 l
27535 2815 l
28020 2566 l
s
2879 719 2879 23761 28801 23761 28801 719 clp
5472 23067 0 30 194 194 e
3 pfi
6269 22954 0 30 194 194 e
3 pfi
6725 22848 0 30 194 194 e
3 pfi
7116 22702 0 30 194 194 e
3 pfi
7678 22400 0 30 194 194 e
3 pfi
8455 21864 0 30 194 194 e
3 pfi
9403 21087 0 30 194 194 e
3 pfi
10396 20104 0 30 194 194 e
3 pfi
11283 19001 0 30 194 194 e
3 pfi
11969 17884 0 30 194 194 e
3 pfi
12444 16850 0 30 194 194 e
3 pfi
12748 15980 0 30 194 194 e
3 pfi
12932 15322 0 30 194 194 e
3 pfi
13056 14799 0 30 194 194 e
3 pfi
13179 14215 0 30 194 194 e
3 pfi
13302 13541 0 30 194 194 e
3 pfi
13425 12753 0 30 194 194 e
3 pfi
13548 11844 0 30 194 194 e
3 pfi
13673 10848 0 30 194 194 e
3 pfi
13799 9954 0 30 194 194 e
3 pfi
13925 9318 0 30 194 194 e
3 pfi
14054 8956 0 30 194 194 e
3 pfi
14183 8810 0 30 194 194 e
3 pfi
14315 8794 0 30 194 194 e
3 pfi
14448 8830 0 30 194 194 e
3 pfi
14583 8854 0 30 194 194 e
3 pfi
14721 8846 0 30 194 194 e
3 pfi
14861 8787 0 30 194 194 e
3 pfi
15004 8673 0 30 194 194 e
3 pfi
15150 8511 0 30 194 194 e
3 pfi
15298 8305 0 30 194 194 e
3 pfi
15451 8059 0 30 194 194 e
3 pfi
15606 7780 0 30 194 194 e
3 pfi
15766 7484 0 30 194 194 e
3 pfi
15929 7194 0 30 194 194 e
3 pfi
16096 6951 0 30 194 194 e
3 pfi
16268 6804 0 30 194 194 e
3 pfi
16445 6804 0 30 194 194 e
3 pfi
16627 6998 0 30 194 194 e
3 pfi
16814 7406 0 30 194 194 e
3 pfi
17006 7980 0 30 194 194 e
3 pfi
17204 8533 0 30 194 194 e
3 pfi
17408 8865 0 30 194 194 e
3 pfi
17639 8811 0 30 194 194 e
3 pfi
17890 8469 0 30 194 194 e
3 pfi
18154 8021 0 30 194 194 e
3 pfi
18443 7550 0 30 194 194 e
3 pfi
18764 7118 0 30 194 194 e
3 pfi
19131 6906 0 30 194 194 e
3 pfi
19555 6953 0 30 194 194 e
3 pfi
20052 6797 0 30 194 194 e
3 pfi
20639 6326 0 30 194 194 e
3 pfi
21337 5686 0 30 194 194 e
3 pfi
22170 5085 0 30 194 194 e
3 pfi
23168 4709 0 30 194 194 e
3 pfi
24365 4163 0 30 194 194 e
3 pfi
25804 3430 0 30 194 194 e
3 pfi
27535 2815 0 30 194 194 e
3 pfi
5471 2562 5471 23070 28023 23070 28023 2562 clp
2879 719 2879 23761 28801 23761 28801 719 clp
0 z x 23 sw
0 lc
0 lj
[] 0 sd
5641 2563 m
5641 2840 l
s
6253 2563 m
6253 2840 l
s
7476 2563 m
7476 2840 l
s
8088 2563 m
8088 2840 l
s
8699 2563 m
8699 2840 l
s
9311 2563 m
9311 2840 l
s
10534 2563 m
10534 2840 l
s
11145 2563 m
11145 2840 l
s
11757 2563 m
11757 2840 l
s
12368 2563 m
12368 2840 l
s
13591 2563 m
13591 2840 l
s
14203 2563 m
14203 2840 l
s
14815 2563 m
14815 2840 l
s
15426 2563 m
15426 2840 l
s
16649 2563 m
16649 2840 l
s
17261 2563 m
17261 2840 l
s
17872 2563 m
17872 2840 l
s
18484 2563 m
18484 2840 l
s
19707 2563 m
19707 2840 l
s
20318 2563 m
20318 2840 l
s
20930 2563 m
20930 2840 l
s
21541 2563 m
21541 2840 l
s
22765 2563 m
22765 2840 l
s
23376 2563 m
23376 2840 l
s
23988 2563 m
23988 2840 l
s
24599 2563 m
24599 2840 l
s
25822 2563 m
25822 2840 l
s
26434 2563 m
26434 2840 l
s
27045 2563 m
27045 2840 l
s
27657 2563 m
27657 2840 l
s
92 sw
6865 2563 m
6865 3024 l
s
9922 2563 m
9922 3024 l
s
12980 2563 m
12980 3024 l
s
16038 2563 m
16038 3024 l
s
19095 2563 m
19095 3024 l
s
22153 2563 m
22153 3024 l
s
25211 2563 m
25211 3024 l
s
2 lc
5472 2563 m
28022 2563 l
s
23 sw
0 lc
5472 2706 m
5748 2706 l
s
5472 3490 m
5748 3490 l
s
5472 5057 m
5748 5057 l
s
5472 5840 m
5748 5840 l
s
5472 6623 m
5748 6623 l
s
5472 7407 m
5748 7407 l
s
5472 8974 m
5748 8974 l
s
5472 9757 m
5748 9757 l
s
5472 10541 m
5748 10541 l
s
5472 11324 m
5748 11324 l
s
5472 12891 m
5748 12891 l
s
5472 13675 m
5748 13675 l
s
5472 14458 m
5748 14458 l
s
5472 15242 m
5748 15242 l
s
5472 16809 m
5748 16809 l
s
5472 17592 m
5748 17592 l
s
5472 18376 m
5748 18376 l
s
5472 19159 m
5748 19159 l
s
5472 20726 m
5748 20726 l
s
5472 21509 m
5748 21509 l
s
5472 22293 m
5748 22293 l
s
92 sw
5472 4273 m
5933 4273 l
s
5472 8190 m
5933 8190 l
s
5472 12108 m
5933 12108 l
s
5472 16025 m
5933 16025 l
s
5472 19943 m
5933 19943 l
s
2 lc
5472 2563 m
5472 23069 l
s
829.44 fhb
12738 1078 m
(A) sh
13343 1078 m
(x) sh
13810 1078 m
(i) sh
14034 1078 m
(a) sh
14501 1078 m
(l) sh
14725 1078 m
( ) sh
14950 1078 m
(d) sh
15451 1078 m
(i) sh
15676 1078 m
(s) sh
16142 1078 m
(t) sh
16419 1078 m
(a) sh
16885 1078 m
(n) sh
17387 1078 m
(c) sh
17853 1078 m
(e) sh
18320 1078 m
(,) sh
18544 1078 m
( ) sh
18769 1078 m
(x) sh
19236 1078 m
( ) sh
19460 1078 m
(\() sh
19737 1078 m
(m) sh
20480 1078 m
(\)) sh
829.44 fhb
3658 7855 m
gs 90.0 ro
(P) sh
gr
3658 8408 m
gs 90.0 ro
(r) sh
gr
3658 8736 m
gs 90.0 ro
(e) sh
gr
3658 9203 m
gs 90.0 ro
(s) sh
gr
3658 9669 m
gs 90.0 ro
(s) sh
gr
3658 10136 m
gs 90.0 ro
(u) sh
gr
3658 10637 m
gs 90.0 ro
(r) sh
gr
3658 10965 m
gs 90.0 ro
(e) sh
gr
3658 11432 m
gs 90.0 ro
( ) sh
gr
3658 11657 m
gs 90.0 ro
(r) sh
gr
3658 11985 m
gs 90.0 ro
(a) sh
gr
3658 12451 m
gs 90.0 ro
(t) sh
gr
3658 12728 m
gs 90.0 ro
(i) sh
gr
3658 12953 m
gs 90.0 ro
(o) sh
gr
3658 13454 m
gs 90.0 ro
(,) sh
gr
3658 13678 m
gs 90.0 ro
( ) sh
gr
3658 13903 m
gs 90.0 ro
(p) sh
gr
3658 14404 m
gs 90.0 ro
(/) sh
gr
3658 14629 m
gs 90.0 ro
(p) sh
gr
497.664 fhb
3906 15130 m
gs 90.0 ro
(0) sh
gr
3906 15410 m
gs 90.0 ro
(,) sh
gr
3906 15545 m
gs 90.0 ro
(i) sh
gr
3906 15679 m
gs 90.0 ro
(n) sh
gr
829.44 fhb
3658 15980 m
gs 90.0 ro
( ) sh
gr
3658 16205 m
gs 90.0 ro
(\() sh
gr
3658 16481 m
gs 90.0 ro
(P) sh
gr
3658 17034 m
gs 90.0 ro
(a) sh
gr
3658 17501 m
gs 90.0 ro
(\)) sh
gr
691.2 fhn
6274 1863 m
(\255) sh
6490 1863 m
(0) sh
6879 1863 m
(.) sh
7066 1863 m
(2) sh
691.2 fhn
9332 1863 m
(\255) sh
9548 1863 m
(0) sh
9937 1863 m
(.) sh
10124 1863 m
(1) sh
691.2 fhn
12786 1863 m
(0) sh
691.2 fhn
15555 1863 m
(0) sh
15944 1863 m
(.) sh
16131 1863 m
(1) sh
691.2 fhn
18613 1863 m
(0) sh
19002 1863 m
(.) sh
19189 1863 m
(2) sh
691.2 fhn
21671 1863 m
(0) sh
22059 1863 m
(.) sh
22247 1863 m
(3) sh
691.2 fhn
24728 1863 m
(0) sh
25117 1863 m
(.) sh
25304 1863 m
(4) sh
691.2 fhn
4248 4038 m
(0) sh
4637 4038 m
(.) sh
4824 4038 m
(3) sh
691.2 fhn
4248 7955 m
(0) sh
4637 7955 m
(.) sh
4824 7955 m
(4) sh
691.2 fhn
4248 11873 m
(0) sh
4637 11873 m
(.) sh
4824 11873 m
(5) sh
691.2 fhn
4248 15790 m
(0) sh
4637 15790 m
(.) sh
4824 15790 m
(6) sh
691.2 fhn
4248 19708 m
(0) sh
4637 19708 m
(.) sh
4824 19708 m
(7) sh
691.2 fhb
16970 16922 m
(E) sh
17430 16922 m
(x) sh
17819 16922 m
(p) sh
18237 16922 m
(e) sh
18626 16922 m
(r) sh
18899 16922 m
(i) sh
19086 16922 m
(m) sh
19706 16922 m
(e) sh
20094 16922 m
(n) sh
20512 16922 m
(t) sh
20742 16922 m
( ) sh
20930 16922 m
(b) sh
21347 16922 m
(y) sh
21736 16922 m
( ) sh
21923 16922 m
(M) sh
22499 16922 m
(o) sh
22917 16922 m
(o) sh
23334 16922 m
(r) sh
23608 16922 m
(e) sh
23997 16922 m
( ) sh
24184 16922 m
(e) sh
24573 16922 m
(t) sh
24803 16922 m
(.) sh
24990 16922 m
( ) sh
25178 16922 m
(a) sh
25566 16922 m
(l) sh
25754 16922 m
(.) sh
25941 16922 m
( ) sh
26128 16922 m
(\() sh
26358 16922 m
(1) sh
26747 16922 m
(9) sh
27136 16922 m
(7) sh
27525 16922 m
(3) sh
27914 16922 m
(\)) sh
691.2 fhb
16970 15955 m
(R) sh
17474 15955 m
(o) sh
17891 15955 m
(e) sh
18280 15955 m
(M) sh
18856 15955 m
(_) sh
19245 15955 m
(N) sh
691.2 fhb
16970 14987 m
(A) sh
17474 14987 m
(U) sh
17978 14987 m
(S) sh
18438 14987 m
(M) sh
19014 14987 m
(P) sh
19475 14987 m
(W) sh
20123 14987 m
(+) sh
20526 14987 m
(_) sh
20915 14987 m
(N) sh
14896 17130 45 90 389 389 e
0 pfi
46 sw
[1 114] 0 sd
13341 16162 m
16451 16162 l
s
14896 16162 90 120 285 285 e
1 pfi
0 z x 13341 15194 m
16451 15194 l
s
14896 15194 0 30 194 194 e
3 pfi
gr end
showpage
